{
"current_page": 1,
"total_pages": 201,
"total_items": 10000,
"feature": "popular",
"filters": {},
"photos":
    [
        {
            "id": 1012605653,
            "created_at": "2020-03-20T19:09:08+00:00",
            "privacy": false,
            "profile": true,
            "url": "/photo/1012605653/Maya-by-Sean-Archer",
            "user_id": 777395,
            "status": 1,
            "width": 1484,
            "height": 1800,
            "rating": 99.5,
            "highest_rating": 99.5,
            "highest_rating_date": "2020-03-21T12:58:14+00:00",
            "image_format": "jpg",
            "images": [
                {
                    "format": "jpeg",
                    "size": 22,
                    "url": "https://drscdn.500px.org/photo/1012605653/q%3D50_h%3D450/v2?sig=b6ab36e68842573e6444c03a08ce8c007164db962045b4c3e0549b0d270034e0",
                    "https_url": "https://drscdn.500px.org/photo/1012605653/q%3D50_h%3D450/v2?sig=b6ab36e68842573e6444c03a08ce8c007164db962045b4c3e0549b0d270034e0"
                }
            ],
            "image_url": [
                "https://drscdn.500px.org/photo/1012605653/q%3D50_h%3D450/v2?sig=b6ab36e68842573e6444c03a08ce8c007164db962045b4c3e0549b0d270034e0"
            ],
            "name": "Maya",
            "description": "All my tutorials 70% off!\n\nMy own postwork method. 15 minutes only. I dont use frequency separation, masks, curves and any complicated methods at all. It's unbelievable simple and very fast. Personal online lessons and video tutorials - outofsight@mail.ru. ",
            "category": 5,
            "taken_at": "2020-02-28T19:00:00+00:00",
            "shutter_speed": "1/99",
            "focal_length": "85",
            "aperture": "3.2",
            "camera": "Canon EOS 6D",
            "lens": "EF85mm f/1.2L II USM",
            "iso": "640",
            "location": "New York, NY, USA",
            "latitude": 40.7127753,
            "longitude": -74.0059728,
            "nsfw": false,
            "privacy_level": 2,
            "watermark": false,
            "has_nsfw_tags": false,
            "liked": null,
            "voted": null,
            "comments_count": 19,
            "votes_count": 1810,
            "positive_votes_count": 1810,
            "times_viewed": 32416,
            "user": {
                "id": 777395,
                "username": "SeanArcher",
                "fullname": "Sean Archer",
                "avatar_version": 59,
                "registration_date": "2012-04-27T14:16:42+00:00",
                "avatars": {
                    "tiny": {
                        "https": "https://drscdn.500px.org/user_avatar/777395/q%3D85_w%3D30_h%3D30/v2?webp=true&v=59&sig=19931aa2ecab1d723f883f0dfd53b45cc1f3d102d7a00840fac64a240ae96e5a"
                    },
                    "small": {
                        "https": "https://drscdn.500px.org/user_avatar/777395/q%3D85_w%3D50_h%3D50/v2?webp=true&v=59&sig=e9e804fa347bdd0d042829368b961a457fe50400fb39d41954a2e83450722536"
                    },
                    "large": {
                        "https": "https://drscdn.500px.org/user_avatar/777395/q%3D85_w%3D100_h%3D100/v2?webp=true&v=59&sig=523becf2116764250dcb1d511ba881a7e211cf8d6bd1598ef5ff7b733fe5a6ea"
                    },
                    "default": {
                        "https": "https://drscdn.500px.org/user_avatar/777395/q%3D85_w%3D300_h%3D300/v2?webp=true&v=59&sig=191cb2b0c262728622ed985a893aab9b7d79de4bc78b423725e63044343957b3"
                    }
                },
                "userpic_url": "https://drscdn.500px.org/user_avatar/777395/q%3D85_w%3D300_h%3D300/v2?webp=true&v=59&sig=191cb2b0c262728622ed985a893aab9b7d79de4bc78b423725e63044343957b3",
                "userpic_https_url": "https://drscdn.500px.org/user_avatar/777395/q%3D85_w%3D300_h%3D300/v2?webp=true&v=59&sig=191cb2b0c262728622ed985a893aab9b7d79de4bc78b423725e63044343957b3",
                "usertype": 0,
                "active": 1,
                "firstname": "Sean",
                "lastname": "Archer",
                "about": "",
                "city": "Yekaterinburg",
                "state": "",
                "country": "Russia",
                "cover_url": "https://drscdn.500px.org/user_cover/777395/q%3D65_m%3D2048/v2?webp=true&v=30&sig=b73551ee4cf935eb414e550de67ca035474a2e66f9e7b2cf3b6cec692c831118",
                "upgrade_status": 3,
                "affection": 5994741,
                "followers_count": 0,
                "following": false
            },
            "editors_choice": false,
            "editors_choice_date": null,
            "editored_by": null,
            "feature": "popular",
            "feature_date": "2020-03-20T19:12:57+00:00",
            "fill_switch": {
                "access_deleted": false,
                "access_private": false,
                "include_deleted": false,
                "exclude_private": false,
                "exclude_nude": false,
                "always_exclude_nude": false,
                "exclude_block": true,
                "current_user_id": null,
                "only_user_active": true,
                "include_tags": false,
                "include_geo": false,
                "include_licensing": false,
                "include_admin_locks": false,
                "include_like_by": false,
                "include_comments": false,
                "include_user_info": false,
                "include_follow_info": false,
                "include_equipment_info": false
            }
        },
        {
            "id": 1012619843,
            "created_at": "2020-03-21T02:28:54+00:00",
            "privacy": false,
            "profile": true,
            "url": "/photo/1012619843/Shell-Beach-by-Greg-Boratyn",
            "user_id": 570437,
            "status": 1,
            "width": 1600,
            "height": 878,
            "rating": 98.5,
            "highest_rating": 98.5,
            "highest_rating_date": "2020-03-21T13:11:07+00:00",
            "image_format": "jpg",
            "images": [
                {
                    "format": "jpeg",
                    "size": 22,
                    "url": "https://drscdn.500px.org/photo/1012619843/q%3D50_h%3D450/v2?sig=4562d4f14b78f72015e64539f55cdda0468a77817360e270c0fe9acb74f49619",
                    "https_url": "https://drscdn.500px.org/photo/1012619843/q%3D50_h%3D450/v2?sig=4562d4f14b78f72015e64539f55cdda0468a77817360e270c0fe9acb74f49619"
                }
            ],
            "image_url": [
                "https://drscdn.500px.org/photo/1012619843/q%3D50_h%3D450/v2?sig=4562d4f14b78f72015e64539f55cdda0468a77817360e270c0fe9acb74f49619"
            ],
            "name": "Shell Beach",
            "description": "Stay home, stay safe, enjoy the picture!",
            "category": 8,
            "taken_at": null,
            "shutter_speed": "null",
            "focal_length": "null",
            "aperture": "",
            "camera": "",
            "lens": "",
            "iso": "null",
            "location": "Atlantic Ocean",
            "latitude": -14.5994134,
            "longitude": -28.6731465,
            "nsfw": false,
            "privacy_level": 2,
            "watermark": false,
            "has_nsfw_tags": false,
            "liked": null,
            "voted": null,
            "comments_count": 18,
            "votes_count": 474,
            "positive_votes_count": 474,
            "times_viewed": 6055,
            "user": {
                "id": 570437,
                "username": "GreggB",
                "fullname": "Greg Boratyn",
                "avatar_version": 7,
                "registration_date": "2012-02-03T05:51:02+00:00",
                "avatars": {
                    "tiny": {
                        "https": "https://drscdn.500px.org/user_avatar/570437/q%3D85_w%3D30_h%3D30/v2?webp=true&v=7&sig=ad62beb06d177c9c96db01c182e3e04036eb0f765844ac4efba19b1a76db530f"
                    },
                    "small": {
                        "https": "https://drscdn.500px.org/user_avatar/570437/q%3D85_w%3D50_h%3D50/v2?webp=true&v=7&sig=e85f3550b161674c7aecf8caebc855802b163fa3001272a8a0c3811841cda489"
                    },
                    "large": {
                        "https": "https://drscdn.500px.org/user_avatar/570437/q%3D85_w%3D100_h%3D100/v2?webp=true&v=7&sig=34cf98e058728213e755e70ddd0104ce95c9160b699968426a379a2b74226a79"
                    },
                    "default": {
                        "https": "https://drscdn.500px.org/user_avatar/570437/q%3D85_w%3D300_h%3D300/v2?webp=true&v=7&sig=1a692925655fae709146040d7115df7ae1eee03bcab82f79f4754dedfc1dc326"
                    }
                },
                "userpic_url": "https://drscdn.500px.org/user_avatar/570437/q%3D85_w%3D300_h%3D300/v2?webp=true&v=7&sig=1a692925655fae709146040d7115df7ae1eee03bcab82f79f4754dedfc1dc326",
                "userpic_https_url": "https://drscdn.500px.org/user_avatar/570437/q%3D85_w%3D300_h%3D300/v2?webp=true&v=7&sig=1a692925655fae709146040d7115df7ae1eee03bcab82f79f4754dedfc1dc326",
                "usertype": 0,
                "active": 1,
                "firstname": "Greg",
                "lastname": "Boratyn",
                "about": "I'm an avid and passionate photographer. If you'd like to know more about me and  my work please see my website scenesfromlight.com.",
                "city": "Los Angeles",
                "state": "CA",
                "country": "USA",
                "cover_url": "https://drscdn.500px.org/user_cover/570437/q%3D65_m%3D2048/v2?webp=true&v=52&sig=2db6ee3808294b4e321e938665c03a5333959dc710d497b2b6e18578048d47ea",
                "upgrade_status": 0,
                "affection": 1075885,
                "followers_count": 0,
                "following": false
            },
            "editors_choice": false,
            "editors_choice_date": null,
            "editored_by": null,
            "feature": "popular",
            "feature_date": "2020-03-21T02:50:48+00:00",
            "fill_switch": {
                "access_deleted": false,
                "access_private": false,
                "include_deleted": false,
                "exclude_private": false,
                "exclude_nude": false,
                "always_exclude_nude": false,
                "exclude_block": true,
                "current_user_id": null,
                "only_user_active": true,
                "include_tags": false,
                "include_geo": false,
                "include_licensing": false,
                "include_admin_locks": false,
                "include_like_by": false,
                "include_comments": false,
                "include_user_info": false,
                "include_follow_info": false,
                "include_equipment_info": false
            }
        },
        {
            "id": 1012595189,
            "created_at": "2020-03-20T15:30:09+00:00",
            "privacy": false,
            "profile": true,
            "url": "/photo/1012595189/the-power-of-the-universe-by-Luís-Casaca",
            "user_id": 23101355,
            "status": 1,
            "width": 6000,
            "height": 3375,
            "rating": 98.5,
            "highest_rating": 98.5,
            "highest_rating_date": "2020-03-21T13:11:14+00:00",
            "image_format": "jpg",
            "images": [
                {
                    "format": "jpeg",
                    "size": 22,
                    "url": "https://drscdn.500px.org/photo/1012595189/q%3D50_h%3D450/v2?sig=d9f497e5a5f4cd32fd624f5abf6465a2db99f24356df918615779768a8faf05d",
                    "https_url": "https://drscdn.500px.org/photo/1012595189/q%3D50_h%3D450/v2?sig=d9f497e5a5f4cd32fd624f5abf6465a2db99f24356df918615779768a8faf05d"
                }
            ],
            "image_url": [
                "https://drscdn.500px.org/photo/1012595189/q%3D50_h%3D450/v2?sig=d9f497e5a5f4cd32fd624f5abf6465a2db99f24356df918615779768a8faf05d"
            ],
            "name": "the power of the universe",
            "description": "he charm and mystery of the unknown",
            "category": 30,
            "taken_at": "2018-07-05T23:00:00+00:00",
            "shutter_speed": "1/1",
            "focal_length": "null",
            "aperture": "",
            "camera": "ILCE-7M3",
            "lens": "----",
            "iso": "6400",
            "location": "Alqueva, Portugal",
            "latitude": 38.2312544,
            "longitude": -7.557223100000001,
            "nsfw": false,
            "privacy_level": 2,
            "watermark": true,
            "has_nsfw_tags": false,
            "liked": null,
            "voted": null,
            "comments_count": 16,
            "votes_count": 651,
            "positive_votes_count": 651,
            "times_viewed": 12426,
            "user": {
                "id": 23101355,
                "username": "Lcasaca",
                "fullname": "Luís Casaca",
                "avatar_version": 37,
                "registration_date": "2017-08-03T23:35:24+00:00",
                "avatars": {
                    "tiny": {
                        "https": "https://drscdn.500px.org/user_avatar/23101355/q%3D85_w%3D30_h%3D30/v2?webp=true&v=37&sig=5e87a1ddd7fdfec0ec326c8284849f1388b896f3a085776c6654a61490587d90"
                    },
                    "small": {
                        "https": "https://drscdn.500px.org/user_avatar/23101355/q%3D85_w%3D50_h%3D50/v2?webp=true&v=37&sig=3cbf35d87f1ad94fad1c1095fc4fe2254ab3cbec68cff1813c8b2c333363d6a5"
                    },
                    "large": {
                        "https": "https://drscdn.500px.org/user_avatar/23101355/q%3D85_w%3D100_h%3D100/v2?webp=true&v=37&sig=4e5a6acedd214c1caa71245f39c975168cb07a5ddad98956df84aa466ac7649e"
                    },
                    "default": {
                        "https": "https://drscdn.500px.org/user_avatar/23101355/q%3D85_w%3D300_h%3D300/v2?webp=true&v=37&sig=d8761e01e11fcaaf4a5c9af4184a6dba2ad04be22cda242ae3dba3d6e8bd004c"
                    }
                },
                "userpic_url": "https://drscdn.500px.org/user_avatar/23101355/q%3D85_w%3D300_h%3D300/v2?webp=true&v=37&sig=d8761e01e11fcaaf4a5c9af4184a6dba2ad04be22cda242ae3dba3d6e8bd004c",
                "userpic_https_url": "https://drscdn.500px.org/user_avatar/23101355/q%3D85_w%3D300_h%3D300/v2?webp=true&v=37&sig=d8761e01e11fcaaf4a5c9af4184a6dba2ad04be22cda242ae3dba3d6e8bd004c",
                "usertype": 0,
                "active": 1,
                "firstname": "Luís",
                "lastname": "Casaca",
                "about": "Photography of landscape, astrophotography, nature and travel.\n                  casaca.photography@gmail.com",
                "city": "Portimão",
                "state": "Algarve",
                "country": "Portugal",
                "cover_url": "https://drscdn.500px.org/user_cover/23101355/q%3D65_m%3D2048/v2?webp=true&v=53&sig=0c9a4d133d1b36288be7c58a436e981945acdf40e070c98c75b6808b4142b2cb",
                "upgrade_status": 3,
                "affection": 390428,
                "followers_count": 0,
                "following": false
            },
            "editors_choice": false,
            "editors_choice_date": null,
            "editored_by": null,
            "feature": "popular",
            "feature_date": "2020-03-20T15:36:49+00:00",
            "fill_switch": {
                "access_deleted": false,
                "access_private": false,
                "include_deleted": false,
                "exclude_private": false,
                "exclude_nude": false,
                "always_exclude_nude": false,
                "exclude_block": true,
                "current_user_id": null,
                "only_user_active": true,
                "include_tags": false,
                "include_geo": false,
                "include_licensing": false,
                "include_admin_locks": false,
                "include_like_by": false,
                "include_comments": false,
                "include_user_info": false,
                "include_follow_info": false,
                "include_equipment_info": false
            }
        }
    ]
}
